…
1. (a) What's the minimum life expectancy for each continent and each year? 
   (b) Add the corresponding country to the tibble, too. 
   (c) Arrange by min life expectancy.


```r
library(gapminder)
gapminder %>% 
  group_by(continent, year) %>% 
  summarise(min_life = min(lifeExp)) %>% 
  arrange(min_life)
```

```
## # A tibble: 60 x 3
## # Groups:   continent [5]
##    continent  year min_life
##    <fct>     <int>    <dbl>
##  1 Africa     1992     23.6
##  2 Asia       1952     28.8
##  3 Africa     1952     30  
##  4 Asia       1957     30.3
##  5 Asia       1977     31.2
##  6 Africa     1957     31.6
##  7 Asia       1962     32.0
##  8 Africa     1962     32.8
##  9 Asia       1967     34.0
## 10 Africa     1967     34.1
## # … with 50 more rows
```
…
```r
psych::bfi %>%
  as_tibble() %>% 
  select(A1:A5) %>% 
  rowwise() %>% 
  mutate(A_mean = mean(c(A1, A2, A3, A4, A5), na.rm = TRUE),
         A_sd = sd(c(A1, A2, A3, A4, A5), na.rm = TRUE)) %>% 
  ungroup()
```

```
## # A tibble: 2,800 x 7
##       A1    A2    A3    A4    A5 A_mean  A_sd
##    <int> <int> <int> <int> <int>  <dbl> <dbl>
##  1     2     4     3     4     4    3.4 0.894
##  2     2     4     5     2     5    3.6 1.52 
##  3     5     4     5     4     4    4.4 0.548
##  4     4     4     6     5     5    4.8 0.837
##  5     2     3     3     4     5    3.4 1.14 
##  6     6     6     5     6     5    5.6 0.548
##  7     2     5     5     3     5    4   1.41 
##  8     4     3     1     5     1    2.8 1.79 
##  9     4     3     6     3     3    3.8 1.30 
## 10     2     5     6     6     5    4.8 1.64 
## # … with 2,790 more rows
```
…
Some functions are **vectorized**, so you don't need `rowwise()`. 
For example, `pmin()` computes the "parallel min" across the vectors it receives:


```r
psych::bfi %>% 
  as_tibble() %>% 
  select(A1:A5) %>% 
  mutate(A_min = pmin(A1, A2, A3, A4, A5))
```

```
## # A tibble: 2,800 x 6
##       A1    A2    A3    A4    A5 A_min
##    <int> <int> <int> <int> <int> <int>
##  1     2     4     3     4     4     2
##  2     2     4     5     2     5     2
##  3     5     4     5     4     4     4
##  4     4     4     6     5     5     4
##  5     2     3     3     4     5     2
##  6     6     6     5     6     5     5
##  7     2     5     5     3     5     2
##  8     4     3     1     5     1     1
##  9     4     3     6     3     3     3
## 10     2     5     6     6     5     2
## # … with 2,790 more rows
```
…
`rowMeans()` computes the mean of each row of a data frame. We can use it by
putting `select()` inside of `mutate()`:



```r
psych::bfi %>% 
  as_tibble() %>% 
  select(A1:A5) %>% 
  mutate(A_mn = rowMeans(select(., A1:A5)),
         A_mn2 = rowMeans(select(., starts_with("A", ignore.case = FALSE))))
```

```
## # A tibble: 2,800 x 7
##       A1    A2    A3    A4    A5  A_mn A_mn2
##    <int> <int> <int> <int> <int> <dbl> <dbl>
##  1     2     4     3     4     4   3.4   3.4
##  2     2     4     5     2     5   3.6   3.6
##  3     5     4     5     4     4   4.4   4.4
##  4     4     4     6     5     5   4.8   4.8
##  5     2     3     3     4     5   3.4   3.4
##  6     6     6     5     6     5   5.6   5.6
##  7     2     5     5     3     5   4     4  
##  8     4     3     1     5     1   2.8   2.8
##  9     4     3     6     3     3   3.8   3.8
## 10     2     5     6     6     5   4.8   4.8
## # … with 2,790 more rows
```
…
